[
  { "username": "azizuzezo", "password": "123456", "nama": "Aziz Pambayun" },

  { "username": "ilham", "password": "a1a1a1", "nama": "Ilham Kurniawan" },

  { "username": "anya", "password": "wakuwaku", "nama": "Anya Forger" }
]
